{
  "project_info": {
    "project_number": "833146512718",
    "firebase_url": "https://chatapp-46f5d.firebaseio.com",
    "project_id": "chatapp-46f5d",
    "storage_bucket": "chatapp-46f5d.appspot.com"
  },
  "client": [
    {
      "client_info": {
        "mobilesdk_app_id": "1:833146512718:android:8eaba1753960899e",
        "android_client_info": {
          "package_name": "com.codelabteam.chatapp"
        }
      },
      "oauth_client": [
        {
          "client_id": "833146512718-a0aar9ega79gc8aajpfeuoeou0k5kvuk.apps.googleusercontent.com",
          "client_type": 3
        }
      ],
      "api_key": [
        {
          "current_key": "AIzaSyBy6fljlBmLmYZx880ktnRN0ZSwp3qTr18"
        }
      ],
      "services": {
        "analytics_service": {
          "status": 1
        },
        "appinvite_service": {
          "status": 1,
          "other_platform_oauth_client": []
        },
        "ads_service": {
          "status": 2
        }
      }
    }
  ],
  "configuration_version": "1"
}